{
  "base": {
    "chart.api.share.endpoint": "",
    "chart.viewer.url": "",
    "chart.viewer.source": "",
    "GA.trackingID": ""
  },
  "development": {},
  "prototype": {},
  "ci": {},
  "preprod": {},
  "production": {}
}